# 3ds Max Wavefront OBJ Exporter v0.97b - (c)2007 guruware
# File Created: 06.05.2013 11:09:33

newmtl _20379_Cape_cart_v120379_Cape_cart_v1
	Ns 21.0000
	Ni 1.5000
	d 1.0000
	Tr 0.0000
	Tf 1.0000 1.0000 1.0000 
	illum 2
	Ka 1.0000 1.0000 1.0000
	Kd 1.0000 1.0000 1.0000
	Ks 0.2725 0.2725 0.2725
	Ke 0.0000 0.0000 0.0000
	map_Ka 20379_Cape_cart_v1_diff.jpg
	map_Kd 20379_Cape_cart_v1_diff.jpg
