# 3ds Max Wavefront OBJ Exporter v0.97b - (c)2007 guruware
# File Created: 19.06.2017 10:00:36

newmtl wire_087225143
	Ns 32
	d 1
	Tr 0
	Tf 1 1 1
	illum 2
	Ka 0.3412 0.8824 0.5608
	Kd 0.3412 0.8824 0.5608
	Ks 0.3500 0.3500 0.3500
