^D:\MUZEU\MUZEU\MUZEU\DEBUG\CONTROLS.OBJ|D:\MUZEU\MUZEU\MUZEU\DEBUG\MUZEU.OBJ|D:\MUZEU\MUZEU\MUZEU\DEBUG\OBJLOADER.OBJ|D:\MUZEU\MUZEU\MUZEU\DEBUG\PCH.OBJ|D:\MUZEU\MUZEU\MUZEU\DEBUG\SHADER.OBJ|D:\MUZEU\MUZEU\MUZEU\DEBUG\TEXTURE.OBJ
C:\PROGRAM FILES (X86)\WINDOWS KITS\10\LIB\10.0.17763.0\UM\X86\KERNEL32.LIB
C:\PROGRAM FILES (X86)\WINDOWS KITS\10\LIB\10.0.17763.0\UM\X86\USER32.LIB
C:\PROGRAM FILES (X86)\WINDOWS KITS\10\LIB\10.0.17763.0\UM\X86\GDI32.LIB
C:\PROGRAM FILES (X86)\WINDOWS KITS\10\LIB\10.0.17763.0\UM\X86\WINSPOOL.LIB
C:\PROGRAM FILES (X86)\WINDOWS KITS\10\LIB\10.0.17763.0\UM\X86\COMDLG32.LIB
C:\PROGRAM FILES (X86)\WINDOWS KITS\10\LIB\10.0.17763.0\UM\X86\ADVAPI32.LIB
C:\PROGRAM FILES (X86)\WINDOWS KITS\10\LIB\10.0.17763.0\UM\X86\SHELL32.LIB
C:\PROGRAM FILES (X86)\WINDOWS KITS\10\LIB\10.0.17763.0\UM\X86\OLE32.LIB
C:\PROGRAM FILES (X86)\WINDOWS KITS\10\LIB\10.0.17763.0\UM\X86\OLEAUT32.LIB
C:\PROGRAM FILES (X86)\WINDOWS KITS\10\LIB\10.0.17763.0\UM\X86\UUID.LIB
C:\PROGRAM FILES (X86)\WINDOWS KITS\10\LIB\10.0.17763.0\UM\X86\ODBC32.LIB
C:\PROGRAM FILES (X86)\WINDOWS KITS\10\LIB\10.0.17763.0\UM\X86\ODBCCP32.LIB
D:\MUZEU\MUZEU\MUZEU\DEBUG\CONTROLS.OBJ
D:\MUZEU\MUZEU\MUZEU\DEBUG\OBJLOADER.OBJ
D:\MUZEU\MUZEU\MUZEU\DEBUG\SHADER.OBJ
D:\MUZEU\MUZEU\MUZEU\DEBUG\TEXTURE.OBJ
D:\MUZEU\MUZEU\MUZEU\DEBUG\MUZEU.OBJ
D:\MUZEU\MUZEU\MUZEU\DEBUG\PCH.OBJ
C:\WINDOWS\SYSTEM32\TZRES.DLL
C:\WINDOWS\GLOBALIZATION\SORTING\SORTDEFAULT.NLS
C:\PROGRAM FILES (X86)\MICROSOFT VISUAL STUDIO\2017\COMMUNITY\VC\TOOLS\MSVC\14.16.27023\LIB\X86\MSVCPRTD.LIB
C:\PROGRAM FILES (X86)\MICROSOFT VISUAL STUDIO\2017\COMMUNITY\VC\TOOLS\MSVC\14.16.27023\LIB\X86\MSVCRTD.LIB
C:\PROGRAM FILES (X86)\MICROSOFT VISUAL STUDIO\2017\COMMUNITY\VC\TOOLS\MSVC\14.16.27023\LIB\X86\OLDNAMES.LIB
D:\MUZEU\_EXTERNAL\GLFW\X86\GLFW3DLL.LIB
D:\MUZEU\_EXTERNAL\GLEW\LIB\RELEASE\WIN32\GLEW32.LIB
C:\PROGRAM FILES (X86)\WINDOWS KITS\10\LIB\10.0.17763.0\UM\X86\OPENGL32.LIB
C:\PROGRAM FILES (X86)\MICROSOFT VISUAL STUDIO\2017\COMMUNITY\VC\TOOLS\MSVC\14.16.27023\LIB\X86\VCRUNTIMED.LIB
C:\PROGRAM FILES (X86)\WINDOWS KITS\10\LIB\10.0.17763.0\UCRT\X86\UCRTD.LIB
C:\PROGRAM FILES (X86)\MICROSOFT VISUAL STUDIO\2017\COMMUNITY\VC\TOOLS\MSVC\14.16.27023\BIN\HOSTX86\X86\MSPDBSRV.EXE
^D:\PROJECT\MUZEU\MUZEU\MUZEU\DEBUG\CAMERA1.OBJ|D:\PROJECT\MUZEU\MUZEU\MUZEU\DEBUG\FILESYSTEM.OBJ|D:\PROJECT\MUZEU\MUZEU\MUZEU\DEBUG\GLAD.OBJ|D:\PROJECT\MUZEU\MUZEU\MUZEU\DEBUG\MESH.OBJ|D:\PROJECT\MUZEU\MUZEU\MUZEU\DEBUG\MODEL.OBJ|D:\PROJECT\MUZEU\MUZEU\MUZEU\DEBUG\MUZEU.OBJ
D:\PROJECT\MUZEU\MUZEU\DEBUG\SOIL.LIB
D:\PROJECT\MUZEU\_EXTERNAL\GLFW\X86\GLFW3.LIB
D:\PROJECT\MUZEU\_EXTERNAL\ASSIMP.LIB
D:\PROJECT\MUZEU\_EXTERNAL\GLEW\LIB\RELEASE\WIN32\GLEW32S.LIB
C:\PROGRAM FILES (X86)\WINDOWS KITS\10\LIB\10.0.17763.0\UM\X86\OPENGL32.LIB
C:\PROGRAM FILES (X86)\WINDOWS KITS\10\LIB\10.0.17763.0\UM\X86\KERNEL32.LIB
C:\PROGRAM FILES (X86)\WINDOWS KITS\10\LIB\10.0.17763.0\UM\X86\USER32.LIB
C:\PROGRAM FILES (X86)\WINDOWS KITS\10\LIB\10.0.17763.0\UM\X86\GDI32.LIB
C:\PROGRAM FILES (X86)\WINDOWS KITS\10\LIB\10.0.17763.0\UM\X86\WINSPOOL.LIB
C:\PROGRAM FILES (X86)\WINDOWS KITS\10\LIB\10.0.17763.0\UM\X86\COMDLG32.LIB
C:\PROGRAM FILES (X86)\WINDOWS KITS\10\LIB\10.0.17763.0\UM\X86\ADVAPI32.LIB
C:\PROGRAM FILES (X86)\WINDOWS KITS\10\LIB\10.0.17763.0\UM\X86\SHELL32.LIB
C:\PROGRAM FILES (X86)\WINDOWS KITS\10\LIB\10.0.17763.0\UM\X86\OLE32.LIB
C:\PROGRAM FILES (X86)\WINDOWS KITS\10\LIB\10.0.17763.0\UM\X86\OLEAUT32.LIB
C:\PROGRAM FILES (X86)\WINDOWS KITS\10\LIB\10.0.17763.0\UM\X86\UUID.LIB
C:\PROGRAM FILES (X86)\WINDOWS KITS\10\LIB\10.0.17763.0\UM\X86\ODBC32.LIB
C:\PROGRAM FILES (X86)\WINDOWS KITS\10\LIB\10.0.17763.0\UM\X86\ODBCCP32.LIB
D:\PROJECT\MUZEU\MUZEU\MUZEU\DEBUG\GLAD.OBJ
D:\PROJECT\MUZEU\MUZEU\MUZEU\DEBUG\CAMERA1.OBJ
D:\PROJECT\MUZEU\MUZEU\MUZEU\DEBUG\FILESYSTEM.OBJ
D:\PROJECT\MUZEU\MUZEU\MUZEU\DEBUG\MESH.OBJ
D:\PROJECT\MUZEU\MUZEU\MUZEU\DEBUG\MODEL.OBJ
D:\PROJECT\MUZEU\MUZEU\MUZEU\DEBUG\MUZEU.OBJ
C:\WINDOWS\SYSTEM32\TZRES.DLL
C:\WINDOWS\GLOBALIZATION\SORTING\SORTDEFAULT.NLS
C:\PROGRAM FILES (X86)\MICROSOFT VISUAL STUDIO\2017\COMMUNITY\VC\TOOLS\MSVC\14.16.27023\LIB\X86\MSVCRTD.LIB
C:\PROGRAM FILES (X86)\MICROSOFT VISUAL STUDIO\2017\COMMUNITY\VC\TOOLS\MSVC\14.16.27023\LIB\X86\OLDNAMES.LIB
C:\PROGRAM FILES (X86)\MICROSOFT VISUAL STUDIO\2017\COMMUNITY\VC\TOOLS\MSVC\14.16.27023\LIB\X86\MSVCPRTD.LIB
C:\PROGRAM FILES (X86)\MICROSOFT VISUAL STUDIO\2017\COMMUNITY\VC\TOOLS\MSVC\14.16.27023\LIB\X86\MSVCRT.LIB
C:\PROGRAM FILES (X86)\MICROSOFT VISUAL STUDIO\2017\COMMUNITY\VC\TOOLS\MSVC\14.16.27023\LIB\X86\VCRUNTIMED.LIB
C:\PROGRAM FILES (X86)\WINDOWS KITS\10\LIB\10.0.17763.0\UCRT\X86\UCRTD.LIB
