^D:\MUZEU\MUZEU\MUZEU\DEBUG\CONTROLS.OBJ|D:\MUZEU\MUZEU\MUZEU\DEBUG\MUZEU.OBJ|D:\MUZEU\MUZEU\MUZEU\DEBUG\OBJLOADER.OBJ|D:\MUZEU\MUZEU\MUZEU\DEBUG\PCH.OBJ|D:\MUZEU\MUZEU\MUZEU\DEBUG\SHADER.OBJ|D:\MUZEU\MUZEU\MUZEU\DEBUG\TEXTURE.OBJ
D:\MUZEU\MUZEU\DEBUG\MUZEU.EXE
D:\MUZEU\MUZEU\DEBUG\MUZEU.ILK
D:\MUZEU\MUZEU\DEBUG\MUZEU.PDB
^D:\PROJECT\MUZEU\MUZEU\MUZEU\DEBUG\CAMERA1.OBJ|D:\PROJECT\MUZEU\MUZEU\MUZEU\DEBUG\FILESYSTEM.OBJ|D:\PROJECT\MUZEU\MUZEU\MUZEU\DEBUG\GLAD.OBJ|D:\PROJECT\MUZEU\MUZEU\MUZEU\DEBUG\MESH.OBJ|D:\PROJECT\MUZEU\MUZEU\MUZEU\DEBUG\MODEL.OBJ|D:\PROJECT\MUZEU\MUZEU\MUZEU\DEBUG\MUZEU.OBJ
D:\PROJECT\MUZEU\MUZEU\DEBUG\MUZEU.EXE
D:\PROJECT\MUZEU\MUZEU\DEBUG\MUZEU.ILK
D:\PROJECT\MUZEU\MUZEU\DEBUG\MUZEU.PDB
