# 3ds Max Wavefront OBJ Exporter v0.97b - (c)2007 guruware
# File Created: 04.04.2013 19:11:32

newmtl 02___Default
	Ns 0.0000
	Ni 1.5000
	d 1.0000
	Tr 0.0000
	Tf 1.0000 1.0000 1.0000 
	illum 2
	Ka 0.0000 0.0000 0.0000
	Kd 0.0000 0.0000 0.0000
	Ks 0.0000 0.0000 0.0000
	Ke 0.0000 0.0000 0.0000
	map_Kd D_Monument_angels_a.bmp

newmtl Material__1
	Ns 0.0000
	Ni 1.5000
	d 1.0000
	Tr 0.0000
	Tf 1.0000 1.0000 1.0000 
	illum 2
	Ka 0.0000 0.0000 0.0000
	Kd 0.0000 0.0000 0.0000
	Ks 0.0000 0.0000 0.0000
	Ke 0.0000 0.0000 0.0000
	map_Kd D_Monument_angels_b.bmp

newmtl Material__2
	Ns 0.0000
	Ni 1.5000
	d 1.0000
	Tr 0.0000
	Tf 1.0000 1.0000 1.0000 
	illum 2
	Ka 0.0000 0.0000 0.0000
	Kd 0.0000 0.0000 0.0000
	Ks 0.0000 0.0000 0.0000
	Ke 0.0000 0.0000 0.0000
	map_Kd D_Monument_angels_c.bmp

newmtl mat_Monument_angels
	Ns 0.0000
	Ni 1.5000
	d 1.0000
	Tr 0.0000
	Tf 1.0000 1.0000 1.0000 
	illum 2
	Ka 0.0000 0.0000 0.0000
	Kd 0.0000 0.0000 0.0000
	Ks 0.0000 0.0000 0.0000
	Ke 0.0000 0.0000 0.0000
	map_Kd D_Monument_angels_d.bmp
